<svg width="50" height="50" viewBox="0 0 50 50" fill="none" xmlns="http://www.w3.org/2000/svg">
<path d="M25 48.75C38.1168 48.75 48.75 38.1168 48.75 25C48.75 11.8832 38.1168 1.25 25 1.25C11.8832 1.25 1.25 11.8832 1.25 25C1.25 38.1168 11.8832 48.75 25 48.75Z" stroke="white" stroke-width="2"/>
<path d="M39.2264 20.8421L29.9901 11.6059C29.4925 11.1091 28.8182 10.8301 28.1151 10.8301C27.412 10.8301 26.7377 11.1091 26.2401 11.6059L11.6063 26.2459C11.1096 26.7434 10.8306 27.4178 10.8306 28.1209C10.8306 28.824 11.1096 29.4983 11.6063 29.9959L12.7451 31.1346L20.3988 38.7884H19.3401C19.179 38.7884 19.0245 38.8524 18.9105 38.9663C18.7966 39.0802 18.7326 39.2347 18.7326 39.3959C18.7326 39.557 18.7966 39.7115 18.9105 39.8254C19.0245 39.9394 19.179 40.0034 19.3401 40.0034H31.4926C31.6537 40.0034 31.8082 39.9394 31.9222 39.8254C32.0361 39.7115 32.1001 39.557 32.1001 39.3959C32.1001 39.2347 32.0361 39.0802 31.9222 38.9663C31.8082 38.8524 31.6537 38.7884 31.4926 38.7884H25.0288L39.2264 24.5859C39.7218 24.0889 40 23.4158 40 22.714C40 22.0122 39.7218 21.3391 39.2264 20.8421ZM38.3676 23.7271L23.7276 38.3659C23.5949 38.4988 23.4373 38.6041 23.2637 38.6757C23.0902 38.7474 22.9041 38.784 22.7163 38.7834C22.5288 38.7839 22.343 38.7472 22.1696 38.6756C21.9963 38.6039 21.8388 38.4987 21.7063 38.3659L14.0351 30.6946L28.0938 16.6409C28.153 16.5851 28.2004 16.5181 28.2332 16.4436C28.266 16.3692 28.2835 16.289 28.2848 16.2077C28.286 16.1264 28.2709 16.0457 28.2403 15.9704C28.2098 15.895 28.1644 15.8266 28.1069 15.7691C28.0494 15.7116 27.981 15.6662 27.9056 15.6357C27.8303 15.6051 27.7495 15.59 27.6682 15.5912C27.5869 15.5924 27.5067 15.6099 27.4323 15.6427C27.3579 15.6755 27.2908 15.7229 27.2351 15.7821L13.1763 29.8396L12.4663 29.1296C12.1991 28.8601 12.0492 28.496 12.0492 28.1165C12.0492 27.737 12.1991 27.3728 12.4663 27.1034L27.1051 12.4659C27.3746 12.1986 27.7387 12.0487 28.1182 12.0487C28.4977 12.0487 28.8619 12.1986 29.1313 12.4659L32.4188 15.7534L18.3588 29.8121C18.2505 29.9271 18.1913 30.0798 18.1936 30.2377C18.196 30.3957 18.2598 30.5465 18.3715 30.6582C18.4832 30.7699 18.634 30.8337 18.792 30.8361C18.9499 30.8384 19.1026 30.7792 19.2176 30.6709L33.2776 16.6121L38.3663 21.7009C38.635 21.9695 38.786 22.3338 38.7862 22.7137C38.7865 23.0936 38.6359 23.4581 38.3676 23.7271Z" fill="white"/>
</svg>
